{
    "opts": {
        "destination": "dist/debian/var/www/mind/api/sdk/web",
        "encoding": "utf8"
    },
    "plugins": ["plugins/markdown"],
    "source": {
        "include": [ "lib", "jsdoc-readme.md" ],
        "includePattern": ".+\\.js$"
    },
    "templates": {
        "default": {
            "outputSourceFiles": false
        }
    }
}
